<?xml version="1.0" encoding="utf-8"?>
<!-- Generator: Adobe Illustrator 16.0.0, SVG Export Plug-In . SVG Version: 6.00 Build 0)  -->
<!DOCTYPE svg PUBLIC "-//W3C//DTD SVG 1.1//EN" "http://www.w3.org/Graphics/SVG/1.1/DTD/svg11.dtd">
<svg version="1.1" id="Layer_1" xmlns="http://www.w3.org/2000/svg" xmlns:xlink="http://www.w3.org/1999/xlink" x="0px" y="0px"
	 width="841.89px" height="595.28px" viewBox="0 0 841.89 595.28" enable-background="new 0 0 841.89 595.28" xml:space="preserve">
<g>
	<path d="M94.597,72.756H29.116v-13.26h65.481V72.756z"/>
	<path d="M107.766,59.497h16.893l55.219,143.587h-16.893L107.766,59.497z"/>
	<path d="M265.249,205.808h-83.827v-14.077h83.827V205.808z"/>
	<path d="M277.6,138.056c0-23.854,4.813-44.229,14.44-61.122s19.738-28.154,30.334-33.785l0.545,0.091l3.451,10.535
		c-8.296,6.479-15.516,16.863-21.661,31.151c-6.146,14.29-9.218,31.939-9.218,52.948v1.181c0,21.011,3.057,38.66,9.173,52.948
		c6.115,14.289,13.351,24.944,21.706,31.969l-3.451,9.809h-0.545c-10.596-5.631-20.707-16.878-30.334-33.74
		s-14.44-37.25-14.44-61.167V138.056z"/>
	<path d="M346.169,76.934l15.258-8.719l14.531,21.797c2.906,4.848,6.539,12.113,10.898,21.797l-17.438,7.992l-10.898-21.797
		c-0.488-0.965-1.703-3.145-3.633-6.539C352.947,88.083,350.041,83.235,346.169,76.934z M380.318,207.715l-4.359-10.172
		c-1.941-2.906-4.359-5.812-7.266-8.719c21.309-5.324,38.984-13.078,53.039-23.25c14.043-10.172,25.43-23,34.149-38.508
		c8.23-15.496,15.258-36.078,21.07-61.758l20.344,5.812c-6.789,24.227-13.566,43.117-20.344,56.672
		c-8.719,15.984-17.199,28.098-25.43,36.328c-10.172,10.172-21.07,18.652-32.696,25.43
		C409.619,195.364,396.779,201.415,380.318,207.715z M393.396,63.856l16.711-6.539c6.777,12.113,13.805,26.406,21.071,42.867
		l-17.438,6.539l-7.266-17.438C402.591,81.543,398.232,73.063,393.396,63.856z"/>
	<path d="M562.594,138.874c0,23.917-4.828,44.306-14.484,61.167c-9.658,16.861-19.754,28.109-30.289,33.74h-0.545l-3.451-9.809
		c8.174-6.357,15.363-16.817,21.57-31.378c6.205-14.561,9.309-32.407,9.309-53.539v-1.181c0-20.707-3.195-38.372-9.582-52.994
		c-6.389-14.622-13.486-25.262-21.297-31.923l3.451-9.809h0.545c10.535,5.631,20.631,16.893,30.289,33.785
		c9.656,16.893,14.484,37.268,14.484,61.122V138.874z"/>
	<path d="M659.863,205.808h-83.828v-14.077h83.828V205.808z"/>
	<path d="M676.938,203.083H661.68l55.219-143.587h15.166L676.938,203.083z"/>
	<path d="M814.076,72.756h-65.482v-13.26h65.482V72.756z"/>
</g>
<g>
	<path d="M55.884,451.572c0-1.729-0.573-3.066-1.718-4.01s-3.201-1.941-6.166-2.998c-6.199-1.954-10.793-4.049-13.78-6.283
		c-2.987-2.234-4.481-5.463-4.481-9.687c0-4.11,1.78-7.435,5.34-9.973c3.56-2.538,8.08-3.808,13.561-3.808
		c5.436,0,9.889,1.398,13.358,4.195c3.471,2.796,5.149,6.396,5.037,10.798l-0.067,0.202H55.918c0-1.954-0.663-3.543-1.988-4.768
		c-1.326-1.224-3.156-1.836-5.492-1.836c-2.291,0-4.088,0.506-5.391,1.516c-1.303,1.012-1.954,2.258-1.954,3.74
		c0,1.438,0.657,2.589,1.971,3.453c1.314,0.865,3.779,1.949,7.396,3.252c5.57,1.662,9.765,3.705,12.584,6.131
		c2.818,2.426,4.228,5.762,4.228,10.007c0,4.312-1.679,7.688-5.037,10.124c-3.358,2.438-7.812,3.655-13.359,3.655
		c-5.571,0-10.389-1.397-14.454-4.194c-4.065-2.796-6.042-6.822-5.93-12.078l0.067-0.202h11.084c0,2.83,0.763,4.852,2.291,6.064
		c1.527,1.213,3.841,1.819,6.94,1.819c2.358,0,4.116-0.472,5.273-1.415C55.306,454.335,55.884,453.1,55.884,451.572z"/>
	<path d="M107.634,424.282H94.697v40.295H83.275v-40.295H70.439v-8.76h37.195V424.282z"/>
	<path d="M124.379,464.577h-11.354v-49.055h11.354V464.577z"/>
	<path d="M144.257,455.817h21.125v8.76h-32.546v-49.055h11.421V455.817z"/>
	<path d="M181.621,455.817h21.125v8.76h-32.546v-49.055h11.421V455.817z"/>
	<path d="M265.681,464.577h-11.354v-19.743h-18.16v19.743h-11.421v-49.055h11.421v20.552h18.16v-20.552h11.354V464.577z"/>
	<path d="M300.08,455.043h-15.464l-2.763,9.534h-11.455l15.835-49.055h12.23l15.869,49.055h-11.455L300.08,455.043z
		 M287.142,446.283h10.411l-5.121-17.554h-0.202L287.142,446.283z"/>
	<path d="M355.637,447.361l0.067,0.201c-0.225,5.75-1.926,10.142-5.104,13.174s-7.788,4.548-13.83,4.548
		c-6.064,0-10.995-1.863-14.791-5.593c-3.796-3.728-5.694-8.568-5.694-14.521v-10.242c0-5.93,1.825-10.765,5.475-14.504
		c3.65-3.74,8.395-5.61,14.235-5.61c6.199,0,10.938,1.562,14.218,4.684c3.279,3.122,5.132,7.559,5.559,13.309l-0.067,0.201H344.62
		c-0.157-3.188-0.871-5.559-2.139-7.108c-1.27-1.55-3.432-2.325-6.486-2.325c-2.583,0-4.616,1.039-6.098,3.117
		s-2.224,4.801-2.224,8.17v10.31c0,3.392,0.809,6.132,2.426,8.221s3.841,3.134,6.671,3.134c2.74,0,4.683-0.73,5.829-2.19
		s1.797-3.784,1.954-6.974H355.637z"/>
	<path d="M378.446,444.901h-5.256v19.676h-11.421v-49.055h11.421v19.204h3.875l10.781-19.204h14.15l-15.195,22.202l16.509,26.853
		h-13.881L378.446,444.901z"/>
	<path d="M418.539,464.577h-11.354v-49.055h11.354V464.577z"/>
	<path d="M467.93,464.577h-11.354l-17.957-31.266l-0.203,0.067v31.198h-11.421v-49.055h11.421l17.958,31.266l0.202-0.067v-31.198
		h11.354V464.577z"/>
	<path d="M514.391,457.805c-1.662,1.977-4.076,3.719-7.244,5.223c-3.166,1.505-7.143,2.257-11.926,2.257
		c-6.064,0-10.989-1.863-14.774-5.593c-3.785-3.728-5.677-8.568-5.677-14.521v-10.242c0-5.907,1.848-10.735,5.542-14.487
		c3.694-3.751,8.451-5.627,14.269-5.627c6.312,0,11.039,1.461,14.184,4.381s4.931,6.906,5.357,11.96l-0.067,0.202h-10.681
		c-0.382-2.582-1.218-4.525-2.51-5.828s-3.263-1.955-5.912-1.955c-2.651,0-4.785,1.051-6.402,3.15
		c-1.617,2.101-2.426,4.812-2.426,8.137v10.31c0,3.415,0.798,6.16,2.393,8.237c1.595,2.078,3.829,3.117,6.705,3.117
		c2.088,0,3.728-0.169,4.918-0.506s2.134-0.786,2.83-1.348v-7.749h-7.715v-7.547h19.137V457.805z"/>
	<path d="M564.59,455.043h-15.465l-2.762,9.534h-11.455l15.834-49.055h12.23l15.869,49.055h-11.455L564.59,455.043z
		 M551.652,446.283h10.41l-5.121-17.554h-0.201L551.652,446.283z"/>
	<path d="M623.246,464.577h-11.354l-17.957-31.266l-0.203,0.067v31.198h-11.421v-49.055h11.421l17.958,31.266l0.202-0.067v-31.198
		h11.354V464.577z"/>
	<path d="M648.111,436.95h0.201l9.771-21.428h12.364l-16.677,31.805v17.25h-11.354v-17.823l-16.341-31.231h12.298L648.111,436.95z"
		/>
	<path d="M714.18,447.697h0.203l6.435-32.175h11.017l-11.252,49.055h-10.715l-8.254-30.255h-0.202l-8.187,30.255H682.51
		l-11.286-49.055h11.051l6.435,32.175h0.203l8.658-32.175h7.918L714.18,447.697z"/>
	<path d="M760.641,455.043h-15.465l-2.762,9.534h-11.455l15.834-49.055h12.23l15.869,49.055h-11.455L760.641,455.043z
		 M747.703,446.283h10.41l-5.121-17.554h-0.201L747.703,446.283z"/>
	<path d="M791.402,436.95h0.201l9.771-21.428h12.364l-16.677,31.805v17.25h-11.354v-17.823l-16.341-31.231h12.298L791.402,436.95z"
		/>
</g>
<g>
	<path d="M100.774,357.961c0-4.675-1.548-8.287-4.645-10.837s-8.651-5.251-16.665-8.104c-16.756-5.282-29.172-10.942-37.245-16.984
		c-8.075-6.04-12.111-14.767-12.111-26.181c0-11.11,4.811-20.094,14.434-26.955c9.622-6.86,21.84-10.29,36.653-10.29
		c14.691,0,26.728,3.779,36.107,11.337c9.38,7.558,13.917,17.288,13.614,29.186l-0.182,0.547h-29.869
		c0-5.282-1.792-9.576-5.373-12.886c-3.583-3.308-8.53-4.963-14.843-4.963c-6.192,0-11.05,1.366-14.57,4.098
		c-3.521,2.731-5.282,6.101-5.282,10.108c0,3.886,1.776,6.997,5.327,9.334c3.552,2.338,10.213,5.268,19.989,8.787
		c15.056,4.494,26.393,10.018,34.013,16.574c7.618,6.557,11.428,15.572,11.428,27.046c0,11.656-4.539,20.778-13.614,27.365
		c-9.077,6.588-21.113,9.88-36.107,9.88c-15.057,0-28.08-3.779-39.067-11.337c-10.989-7.559-16.332-18.44-16.027-32.647l0.182-0.546
		h29.96c0,7.649,2.063,13.113,6.192,16.392c4.128,3.278,10.382,4.918,18.76,4.918c6.374,0,11.124-1.275,14.251-3.825
		C99.21,365.428,100.774,362.09,100.774,357.961z"/>
	<path d="M258.771,393.111h-30.688v-53.363h-49.084v53.363h-30.871v-132.59h30.871v55.549h49.084v-55.549h30.688V393.111z"/>
	<path d="M351.748,367.34h-41.799l-7.467,25.771H271.52l42.8-132.59h33.057l42.892,132.59h-30.962L351.748,367.34z M316.779,343.663
		h28.139l-13.842-47.444h-0.546L316.779,343.663z"/>
	<path d="M490.166,393.111h-92.795v-20.034l42.618-44.804c5.404-6.192,9.381-11.716,11.93-16.574
		c2.551-4.855,3.824-9.074,3.824-12.657c0-5.1-1.289-9.167-3.869-12.203c-2.582-3.035-6.451-4.553-11.611-4.553
		c-4.613,0-8.24,1.958-10.881,5.874c-2.643,3.916-3.963,8.91-3.963,14.98h-30.05l-0.183-0.546
		c-0.304-12.263,3.703-22.66,12.021-31.19c8.317-8.529,19.335-12.794,33.056-12.794c14.57,0,25.938,3.583,34.104,10.745
		c8.166,7.165,12.248,16.97,12.248,29.414c0,8.378-2.17,15.785-6.51,22.22c-4.342,6.436-12.34,15.997-23.996,28.686l-17.939,19.215
		l0.273,0.546h51.725V393.111z"/>
	<path d="M597.438,340.749c0,17.91-4.159,31.434-12.476,40.569c-8.318,9.138-19.52,13.705-33.604,13.705
		c-14.205,0-25.468-4.567-33.784-13.705c-8.318-9.136-12.476-22.659-12.476-40.569v-27.865c0-17.908,4.127-31.432,12.385-40.569
		c8.255-9.136,19.487-13.705,33.693-13.705c14.145,0,25.392,4.584,33.739,13.75c8.347,9.167,12.521,22.675,12.521,40.524V340.749z
		 M566.75,310.789c0-10.138-1.336-17.423-4.007-21.855c-2.673-4.431-6.527-6.647-11.565-6.647c-5.1,0-8.94,2.217-11.52,6.647
		c-2.581,4.433-3.87,11.718-3.87,21.855v31.873c0,10.321,1.305,17.682,3.915,22.083c2.61,4.402,6.496,6.602,11.656,6.602
		c5.039,0,8.863-2.199,11.475-6.602c2.609-4.401,3.916-11.762,3.916-22.083V310.789z"/>
	<path d="M678.668,393.111h-30.689V291.393h-29.596v-21.674l60.285-9.288V393.111z"/>
	<path d="M813.625,284.198c-13.236,15.116-22.372,29.869-27.411,44.257c-5.04,14.389-8.591,31.661-10.654,51.816l-1.274,12.84
		h-30.78l1.184-12.84c1.821-18.941,5.979-36.518,12.476-52.727s15.481-30.657,26.955-43.347h-66.112v-23.677h95.618V284.198z"/>
</g>
<g>
	<path d="M48.487,500.81l0.032,0.096c-0.107,2.733-0.916,4.82-2.426,6.262c-1.511,1.441-3.703,2.162-6.575,2.162
		c-2.883,0-5.227-0.886-7.031-2.658s-2.707-4.073-2.707-6.902v-4.869c0-2.818,0.867-5.117,2.603-6.895
		c1.735-1.778,3.99-2.667,6.767-2.667c2.947,0,5.2,0.742,6.759,2.227c1.559,1.484,2.439,3.593,2.643,6.326l-0.032,0.096H43.25
		c-0.075-1.516-0.414-2.643-1.017-3.379c-0.604-0.737-1.631-1.105-3.083-1.105c-1.228,0-2.194,0.494-2.899,1.481
		c-0.705,0.988-1.057,2.282-1.057,3.884v4.901c0,1.612,0.385,2.914,1.153,3.907s1.826,1.489,3.171,1.489
		c1.303,0,2.227-0.347,2.771-1.041c0.544-0.693,0.854-1.799,0.929-3.314H48.487z"/>
	<path d="M67.194,499.784c0,3.149-0.731,5.528-2.194,7.135c-1.463,1.607-3.433,2.41-5.91,2.41c-2.499,0-4.479-0.803-5.942-2.41
		c-1.463-1.606-2.194-3.985-2.194-7.135v-4.9c0-3.15,0.726-5.528,2.178-7.136c1.452-1.606,3.427-2.41,5.926-2.41
		c2.487,0,4.465,0.807,5.934,2.419c1.468,1.612,2.202,3.987,2.202,7.127V499.784z M61.796,494.515c0-1.782-0.235-3.063-0.705-3.844
		c-0.47-0.779-1.148-1.169-2.034-1.169c-0.897,0-1.572,0.39-2.026,1.169c-0.454,0.78-0.681,2.062-0.681,3.844v5.605
		c0,1.815,0.229,3.11,0.689,3.884c0.459,0.774,1.142,1.161,2.05,1.161c0.886,0,1.559-0.387,2.018-1.161
		c0.459-0.773,0.688-2.068,0.688-3.884V494.515z"/>
	<path d="M70.429,498.743l1.345-13.068h13.677v4.164h-9.273l-0.593,4.885c0.406-0.31,0.913-0.561,1.521-0.753
		c0.609-0.192,1.276-0.299,2.002-0.32c2.285-0.043,4.042,0.622,5.27,1.994c1.228,1.372,1.842,3.317,1.842,5.837
		c0,2.189-0.7,4.044-2.098,5.565c-1.399,1.521-3.401,2.282-6.006,2.282c-2.221,0-4.148-0.613-5.782-1.842
		c-1.634-1.228-2.424-2.851-2.37-4.868l0.032-0.097l5.285-0.32c0,0.93,0.259,1.655,0.777,2.179c0.518,0.523,1.204,0.784,2.058,0.784
		c0.982,0,1.679-0.344,2.09-1.032c0.411-0.689,0.617-1.562,0.617-2.619c0-1.281-0.229-2.29-0.688-3.026
		c-0.459-0.737-1.186-1.105-2.178-1.105c-0.726,0-1.311,0.155-1.754,0.465s-0.75,0.699-0.921,1.169L70.429,498.743z"/>
	<path d="M105.215,489.839c-2.328,2.658-3.935,5.253-4.821,7.783s-1.511,5.568-1.874,9.113l-0.224,2.258h-5.413l0.208-2.258
		c0.32-3.332,1.052-6.423,2.194-9.273c1.142-2.851,2.723-5.392,4.74-7.623H88.399v-4.164h16.816V489.839z"/>
	<path d="M108.386,508.993v-23.318h8.424c2.744,0,5.04,0.894,6.887,2.683c1.847,1.788,2.771,4.081,2.771,6.878v4.196
		c0,2.809-0.923,5.104-2.771,6.887s-4.143,2.675-6.887,2.675H108.386z M113.815,489.839v14.99h2.627
		c1.441,0,2.567-0.494,3.379-1.481s1.217-2.293,1.217-3.916v-4.228c0-1.612-0.406-2.91-1.217-3.893
		c-0.812-0.981-1.938-1.473-3.379-1.473H113.815z"/>
	<path d="M139.008,485.338c0.918,0,1.735,0.078,2.451,0.232c0.715,0.155,1.505,0.403,2.37,0.745l-0.897,3.939
		c-0.747-0.225-1.401-0.393-1.962-0.505c-0.561-0.111-1.204-0.168-1.93-0.168c-1.281,0-2.309,0.451-3.083,1.354
		c-0.774,0.902-1.145,2.218-1.113,3.948l0.048,0.08c0.47-0.534,1.094-0.95,1.874-1.25c0.779-0.299,1.666-0.448,2.659-0.448
		c2.082,0,3.702,0.75,4.861,2.25c1.158,1.501,1.738,3.42,1.738,5.758c0,2.307-0.766,4.226-2.298,5.758s-3.489,2.298-5.87,2.298
		c-2.552,0-4.613-0.838-6.182-2.514c-1.569-1.677-2.354-3.973-2.354-6.887v-4.693c0-3.074,0.905-5.493,2.715-7.255
		S136.168,485.338,139.008,485.338z M137.935,497.43c-0.748,0-1.391,0.102-1.93,0.304s-0.963,0.483-1.273,0.845v1.372
		c0,1.68,0.275,2.97,0.825,3.867c0.55,0.898,1.316,1.348,2.298,1.348c0.811,0,1.473-0.382,1.986-1.148
		c0.513-0.765,0.769-1.674,0.769-2.727c0-1.181-0.248-2.119-0.745-2.815S138.725,497.43,137.935,497.43z"/>
	<path d="M164.601,499.784c0,3.149-0.731,5.528-2.194,7.135c-1.463,1.607-3.433,2.41-5.91,2.41c-2.499,0-4.479-0.803-5.942-2.41
		c-1.463-1.606-2.194-3.985-2.194-7.135v-4.9c0-3.15,0.726-5.528,2.178-7.136c1.452-1.606,3.427-2.41,5.926-2.41
		c2.487,0,4.465,0.807,5.934,2.419c1.468,1.612,2.202,3.987,2.202,7.127V499.784z M159.204,494.515c0-1.782-0.235-3.063-0.705-3.844
		c-0.47-0.779-1.148-1.169-2.034-1.169c-0.897,0-1.572,0.39-2.026,1.169c-0.454,0.78-0.681,2.062-0.681,3.844v5.605
		c0,1.815,0.229,3.11,0.689,3.884c0.459,0.774,1.142,1.161,2.05,1.161c0.886,0,1.559-0.387,2.018-1.161
		c0.459-0.773,0.688-2.068,0.688-3.884V494.515z"/>
	<path d="M183.115,491.904c0,1.143-0.294,2.16-0.881,3.051c-0.587,0.892-1.399,1.594-2.435,2.106
		c1.186,0.545,2.114,1.292,2.787,2.242c0.672,0.95,1.009,2.039,1.009,3.268c0,2.178-0.748,3.849-2.242,5.013
		c-1.495,1.164-3.449,1.745-5.862,1.745s-4.372-0.584-5.877-1.753c-1.506-1.17-2.258-2.838-2.258-5.005
		c0-1.229,0.336-2.317,1.009-3.268c0.673-0.95,1.602-1.697,2.787-2.242c-1.057-0.513-1.876-1.215-2.458-2.106
		c-0.582-0.891-0.873-1.908-0.873-3.051c0-2.082,0.702-3.696,2.106-4.845c1.404-1.147,3.249-1.722,5.534-1.722
		c2.306,0,4.158,0.574,5.557,1.722C182.416,488.208,183.115,489.822,183.115,491.904z M178.198,502.139
		c0-0.929-0.251-1.66-0.752-2.194c-0.502-0.534-1.164-0.801-1.986-0.801c-0.822,0-1.477,0.267-1.962,0.801
		c-0.486,0.534-0.729,1.266-0.729,2.194c0,0.939,0.246,1.679,0.737,2.218s1.153,0.809,1.986,0.809c0.812,0,1.465-0.27,1.962-0.809
		S178.198,503.078,178.198,502.139z M177.718,492.192c0-0.832-0.192-1.489-0.576-1.97c-0.385-0.48-0.945-0.721-1.682-0.721
		c-0.716,0-1.263,0.238-1.642,0.713c-0.379,0.476-0.569,1.135-0.569,1.978c0,0.854,0.192,1.532,0.577,2.034s0.939,0.753,1.666,0.753
		s1.279-0.248,1.658-0.745C177.528,493.738,177.718,493.058,177.718,492.192z"/>
	<path d="M195.992,485.338c0.918,0,1.735,0.078,2.451,0.232c0.715,0.155,1.505,0.403,2.37,0.745l-0.897,3.939
		c-0.747-0.225-1.401-0.393-1.962-0.505c-0.561-0.111-1.204-0.168-1.93-0.168c-1.281,0-2.309,0.451-3.083,1.354
		c-0.774,0.902-1.145,2.218-1.113,3.948l0.048,0.08c0.47-0.534,1.094-0.95,1.874-1.25c0.779-0.299,1.666-0.448,2.659-0.448
		c2.082,0,3.702,0.75,4.861,2.25c1.158,1.501,1.738,3.42,1.738,5.758c0,2.307-0.766,4.226-2.298,5.758s-3.489,2.298-5.87,2.298
		c-2.552,0-4.613-0.838-6.182-2.514c-1.569-1.677-2.354-3.973-2.354-6.887v-4.693c0-3.074,0.905-5.493,2.715-7.255
		S193.152,485.338,195.992,485.338z M194.919,497.43c-0.748,0-1.391,0.102-1.93,0.304s-0.963,0.483-1.273,0.845v1.372
		c0,1.68,0.275,2.97,0.825,3.867c0.55,0.898,1.316,1.348,2.298,1.348c0.811,0,1.473-0.382,1.986-1.148
		c0.513-0.765,0.769-1.674,0.769-2.727c0-1.181-0.248-2.119-0.745-2.815S195.709,497.43,194.919,497.43z"/>
	<path d="M218.189,504.461h-7.351l-1.313,4.532h-5.445l7.527-23.318h5.813l7.543,23.318h-5.445L218.189,504.461z M212.04,500.297
		h4.949l-2.434-8.345h-0.096L212.04,500.297z"/>
	<path d="M233.18,505.165c1.079,0,1.97-0.387,2.675-1.161c0.705-0.773,1.057-1.844,1.057-3.211v-1.024
		c-0.523,0.641-1.132,1.123-1.826,1.449c-0.694,0.325-1.431,0.488-2.21,0.488c-2.125,0-3.788-0.718-4.989-2.154
		c-1.201-1.436-1.802-3.397-1.802-5.886c0-2.316,0.758-4.284,2.274-5.901c1.516-1.618,3.47-2.427,5.862-2.427
		c2.349,0,4.284,0.849,5.806,2.547c1.521,1.697,2.282,4.03,2.282,6.999v5.541c0,2.69-0.865,4.848-2.594,6.471
		c-1.73,1.623-3.908,2.434-6.535,2.434c-0.801,0-1.631-0.088-2.49-0.264c-0.86-0.177-1.679-0.425-2.458-0.745l0.561-3.859
		c0.747,0.245,1.455,0.424,2.122,0.536C231.581,505.109,232.337,505.165,233.18,505.165z M234.061,497.814
		c0.609,0,1.156-0.106,1.642-0.32s0.889-0.507,1.209-0.881v-2.402c0-1.527-0.254-2.693-0.761-3.5
		c-0.507-0.806-1.156-1.209-1.946-1.209c-0.833,0-1.492,0.422-1.978,1.266c-0.486,0.844-0.729,1.81-0.729,2.898
		c0,1.281,0.213,2.293,0.641,3.035S233.207,497.814,234.061,497.814z"/>
	<path d="M258.004,504.461h-7.351l-1.313,4.532h-5.445l7.527-23.318h5.813l7.543,23.318h-5.445L258.004,504.461z M251.854,500.297
		h4.949l-2.434-8.345h-0.096L251.854,500.297z"/>
	<path d="M266.461,498.743l1.345-13.068h13.677v4.164h-9.273l-0.593,4.885c0.406-0.31,0.913-0.561,1.521-0.753
		c0.609-0.192,1.276-0.299,2.002-0.32c2.285-0.043,4.042,0.622,5.27,1.994c1.228,1.372,1.842,3.317,1.842,5.837
		c0,2.189-0.7,4.044-2.098,5.565c-1.399,1.521-3.401,2.282-6.006,2.282c-2.221,0-4.148-0.613-5.782-1.842
		c-1.634-1.228-2.424-2.851-2.37-4.868l0.032-0.097l5.285-0.32c0,0.93,0.259,1.655,0.777,2.179c0.518,0.523,1.204,0.784,2.058,0.784
		c0.982,0,1.679-0.344,2.09-1.032c0.411-0.689,0.617-1.562,0.617-2.619c0-1.281-0.229-2.29-0.688-3.026
		c-0.459-0.737-1.186-1.105-2.178-1.105c-0.726,0-1.311,0.155-1.754,0.465s-0.75,0.699-0.921,1.169L266.461,498.743z"/>
	<path d="M285.423,508.993v-23.318h8.008c2.894,0,5.152,0.536,6.775,1.609c1.623,1.073,2.434,2.672,2.434,4.797
		c0,1.11-0.262,2.098-0.785,2.963c-0.523,0.864-1.329,1.516-2.418,1.953c1.367,0.311,2.375,0.932,3.027,1.866
		s0.977,2.01,0.977,3.228c0,2.273-0.763,3.993-2.29,5.156c-1.527,1.164-3.716,1.746-6.566,1.746H285.423z M290.853,495.396h2.691
		c1.228-0.021,2.146-0.259,2.754-0.712c0.609-0.454,0.913-1.119,0.913-1.994c0-0.993-0.31-1.717-0.929-2.17
		c-0.62-0.454-1.57-0.681-2.851-0.681h-2.579V495.396z M290.853,498.983v5.846h3.732c1.153,0,2.018-0.227,2.594-0.681
		c0.577-0.454,0.865-1.15,0.865-2.09c0-1.015-0.249-1.78-0.745-2.299c-0.496-0.518-1.3-0.776-2.41-0.776H290.853z"/>
	<path d="M320.354,499.912h2.354v4.164h-2.354v4.917h-5.413v-4.917h-9.033l-0.32-3.306l9.354-15.048v-0.048h5.413V499.912z
		 M310.424,499.912h4.517v-7.207l-0.096-0.032l-0.417,0.66L310.424,499.912z"/>
	<path d="M325.479,508.993v-23.318h8.424c2.744,0,5.04,0.894,6.887,2.683c1.847,1.788,2.771,4.081,2.771,6.878v4.196
		c0,2.809-0.923,5.104-2.771,6.887s-4.143,2.675-6.887,2.675H325.479z M330.908,489.839v14.99h2.627
		c1.441,0,2.567-0.494,3.379-1.481s1.217-2.293,1.217-3.916v-4.228c0-1.612-0.406-2.91-1.217-3.893
		c-0.812-0.981-1.938-1.473-3.379-1.473H330.908z"/>
	<path d="M346.907,508.993v-23.318h8.424c2.744,0,5.04,0.894,6.887,2.683c1.847,1.788,2.771,4.081,2.771,6.878v4.196
		c0,2.809-0.923,5.104-2.771,6.887s-4.143,2.675-6.887,2.675H346.907z M352.336,489.839v14.99h2.627
		c1.441,0,2.567-0.494,3.379-1.481s1.217-2.293,1.217-3.916v-4.228c0-1.612-0.406-2.91-1.217-3.893
		c-0.812-0.981-1.938-1.473-3.379-1.473H352.336z"/>
	<path d="M368.336,508.993v-23.318h8.008c2.894,0,5.152,0.536,6.775,1.609c1.623,1.073,2.434,2.672,2.434,4.797
		c0,1.11-0.262,2.098-0.785,2.963c-0.523,0.864-1.329,1.516-2.418,1.953c1.367,0.311,2.375,0.932,3.027,1.866
		s0.977,2.01,0.977,3.228c0,2.273-0.763,3.993-2.29,5.156c-1.527,1.164-3.716,1.746-6.566,1.746H368.336z M373.765,495.396h2.691
		c1.228-0.021,2.146-0.259,2.754-0.712c0.609-0.454,0.913-1.119,0.913-1.994c0-0.993-0.31-1.717-0.929-2.17
		c-0.62-0.454-1.57-0.681-2.851-0.681h-2.579V495.396z M373.765,498.983v5.846h3.732c1.153,0,2.018-0.227,2.594-0.681
		c0.577-0.454,0.865-1.15,0.865-2.09c0-1.015-0.249-1.78-0.745-2.299c-0.496-0.518-1.3-0.776-2.41-0.776H373.765z"/>
	<path d="M405.316,508.993h-16.32v-3.523l7.496-7.88c0.95-1.089,1.649-2.061,2.098-2.915c0.449-0.854,0.673-1.596,0.673-2.226
		c0-0.897-0.227-1.612-0.681-2.146c-0.454-0.533-1.135-0.801-2.042-0.801c-0.812,0-1.449,0.345-1.914,1.033
		c-0.464,0.688-0.696,1.567-0.696,2.635h-5.285l-0.032-0.097c-0.054-2.156,0.651-3.984,2.114-5.485c1.462-1.5,3.4-2.25,5.813-2.25
		c2.562,0,4.562,0.63,5.998,1.89c1.436,1.261,2.154,2.984,2.154,5.174c0,1.473-0.382,2.775-1.145,3.907
		c-0.764,1.132-2.17,2.813-4.22,5.045l-3.155,3.38l0.048,0.096h9.097V508.993z"/>
	<path d="M426.553,500.81l0.032,0.096c-0.106,2.733-0.915,4.82-2.427,6.262c-1.511,1.441-3.702,2.162-6.574,2.162
		c-2.883,0-5.227-0.886-7.031-2.658s-2.707-4.073-2.707-6.902v-4.869c0-2.818,0.867-5.117,2.603-6.895
		c1.735-1.778,3.99-2.667,6.767-2.667c2.947,0,5.2,0.742,6.759,2.227s2.439,3.593,2.643,6.326l-0.032,0.096h-5.269
		c-0.075-1.516-0.414-2.643-1.017-3.379c-0.604-0.737-1.631-1.105-3.083-1.105c-1.228,0-2.194,0.494-2.899,1.481
		c-0.705,0.988-1.057,2.282-1.057,3.884v4.901c0,1.612,0.385,2.914,1.153,3.907s1.826,1.489,3.171,1.489
		c1.303,0,2.227-0.347,2.771-1.041c0.544-0.693,0.854-1.799,0.929-3.314H426.553z"/>
	<path d="M445.291,489.839c-2.328,2.658-3.934,5.253-4.82,7.783s-1.512,5.568-1.873,9.113l-0.225,2.258h-5.414l0.209-2.258
		c0.32-3.332,1.051-6.423,2.193-9.273s2.723-5.392,4.74-7.623h-11.627v-4.164h16.816V489.839z"/>
	<path d="M463.037,499.016h-9.146v5.813h10.778v4.164h-16.207v-23.318h16.239v4.164h-10.811v5.013h9.146V499.016z"/>
	<path d="M467.152,498.743l1.346-13.068h13.678v4.164h-9.273l-0.593,4.885c0.406-0.31,0.913-0.561,1.521-0.753
		s1.276-0.299,2.002-0.32c2.285-0.043,4.041,0.622,5.27,1.994c1.228,1.372,1.842,3.317,1.842,5.837c0,2.189-0.699,4.044-2.099,5.565
		c-1.398,1.521-3.4,2.282-6.006,2.282c-2.221,0-4.147-0.613-5.781-1.842c-1.634-1.228-2.424-2.851-2.37-4.868l0.032-0.097
		l5.285-0.32c0,0.93,0.259,1.655,0.776,2.179s1.204,0.784,2.058,0.784c0.982,0,1.68-0.344,2.091-1.032
		c0.41-0.689,0.616-1.562,0.616-2.619c0-1.281-0.229-2.29-0.688-3.026c-0.459-0.737-1.186-1.105-2.179-1.105
		c-0.726,0-1.311,0.155-1.753,0.465c-0.443,0.31-0.751,0.699-0.921,1.169L467.152,498.743z"/>
	<path d="M502.034,508.993h-16.319v-3.523l7.495-7.88c0.95-1.089,1.649-2.061,2.098-2.915c0.448-0.854,0.673-1.596,0.673-2.226
		c0-0.897-0.227-1.612-0.681-2.146c-0.454-0.533-1.135-0.801-2.042-0.801c-0.812,0-1.449,0.345-1.914,1.033
		c-0.464,0.688-0.696,1.567-0.696,2.635h-5.285l-0.032-0.097c-0.054-2.156,0.651-3.984,2.114-5.485c1.463-1.5,3.4-2.25,5.813-2.25
		c2.562,0,4.562,0.63,5.998,1.89c1.436,1.261,2.154,2.984,2.154,5.174c0,1.473-0.382,2.775-1.146,3.907s-2.17,2.813-4.22,5.045
		l-3.155,3.38l0.048,0.096h9.097V508.993z"/>
	<path d="M505.109,508.993v-23.318h8.424c2.744,0,5.039,0.894,6.887,2.683c1.847,1.788,2.771,4.081,2.771,6.878v4.196
		c0,2.809-0.924,5.104-2.771,6.887c-1.848,1.783-4.143,2.675-6.887,2.675H505.109z M510.538,489.839v14.99h2.627
		c1.441,0,2.567-0.494,3.379-1.481s1.218-2.293,1.218-3.916v-4.228c0-1.612-0.406-2.91-1.218-3.893
		c-0.812-0.981-1.938-1.473-3.379-1.473H510.538z"/>
	<path d="M531.07,495.075h2.546c0.972,0,1.72-0.261,2.242-0.784c0.523-0.523,0.785-1.249,0.785-2.179
		c0-0.736-0.235-1.355-0.705-1.857s-1.152-0.753-2.05-0.753c-0.704,0-1.324,0.203-1.857,0.608c-0.534,0.406-0.801,0.93-0.801,1.57
		h-5.253l-0.032-0.097c-0.064-1.857,0.667-3.363,2.194-4.517c1.526-1.152,3.379-1.729,5.557-1.729c2.531,0,4.554,0.579,6.07,1.738
		c1.516,1.158,2.274,2.8,2.274,4.925c0,1.057-0.328,2.031-0.985,2.923c-0.656,0.892-1.535,1.588-2.635,2.09
		c1.25,0.459,2.227,1.155,2.932,2.09c0.704,0.935,1.057,2.053,1.057,3.355c0,2.136-0.816,3.814-2.45,5.037s-3.722,1.833-6.263,1.833
		c-2.188,0-4.103-0.573-5.741-1.722c-1.639-1.147-2.432-2.811-2.378-4.988l0.031-0.097h5.285c0,0.748,0.291,1.375,0.873,1.882
		c0.582,0.508,1.289,0.761,2.122,0.761c0.95,0,1.708-0.267,2.274-0.801c0.565-0.533,0.849-1.206,0.849-2.018
		c0-1.132-0.296-1.956-0.889-2.475c-0.593-0.518-1.428-0.776-2.507-0.776h-2.546V495.075z"/>
	<path d="M552.099,505.165c1.078,0,1.97-0.387,2.674-1.161c0.705-0.773,1.058-1.844,1.058-3.211v-1.024
		c-0.523,0.641-1.132,1.123-1.826,1.449c-0.694,0.325-1.431,0.488-2.21,0.488c-2.125,0-3.788-0.718-4.989-2.154
		c-1.201-1.436-1.802-3.397-1.802-5.886c0-2.316,0.759-4.284,2.274-5.901c1.517-1.618,3.47-2.427,5.862-2.427
		c2.349,0,4.284,0.849,5.806,2.547c1.521,1.697,2.282,4.03,2.282,6.999v5.541c0,2.69-0.865,4.848-2.595,6.471
		s-3.908,2.434-6.534,2.434c-0.801,0-1.632-0.088-2.491-0.264c-0.859-0.177-1.679-0.425-2.458-0.745l0.561-3.859
		c0.747,0.245,1.455,0.424,2.122,0.536S551.255,505.165,552.099,505.165z M552.979,497.814c0.608,0,1.155-0.106,1.642-0.32
		c0.485-0.214,0.889-0.507,1.209-0.881v-2.402c0-1.527-0.254-2.693-0.761-3.5c-0.508-0.806-1.156-1.209-1.946-1.209
		c-0.833,0-1.492,0.422-1.978,1.266c-0.486,0.844-0.729,1.81-0.729,2.898c0,1.281,0.213,2.293,0.641,3.035
		C551.484,497.443,552.125,497.814,552.979,497.814z"/>
	<path d="M576.922,504.461h-7.351l-1.313,4.532h-5.445l7.527-23.318h5.813l7.543,23.318h-5.445L576.922,504.461z M570.772,500.297
		h4.948l-2.435-8.345h-0.096L570.772,500.297z"/>
	<path d="M599.216,499.912h2.354v4.164h-2.354v4.917h-5.413v-4.917h-9.033l-0.32-3.306l9.354-15.048v-0.048h5.413V499.912z
		 M589.286,499.912h4.517v-7.207l-0.097-0.032l-0.416,0.66L589.286,499.912z"/>
	<path d="M610.907,505.165c1.078,0,1.97-0.387,2.674-1.161c0.705-0.773,1.058-1.844,1.058-3.211v-1.024
		c-0.523,0.641-1.132,1.123-1.826,1.449c-0.694,0.325-1.431,0.488-2.21,0.488c-2.125,0-3.788-0.718-4.989-2.154
		c-1.201-1.436-1.802-3.397-1.802-5.886c0-2.316,0.759-4.284,2.274-5.901c1.517-1.618,3.47-2.427,5.862-2.427
		c2.349,0,4.284,0.849,5.806,2.547c1.521,1.697,2.282,4.03,2.282,6.999v5.541c0,2.69-0.865,4.848-2.595,6.471
		s-3.908,2.434-6.534,2.434c-0.801,0-1.632-0.088-2.491-0.264c-0.859-0.177-1.679-0.425-2.458-0.745l0.561-3.859
		c0.747,0.245,1.455,0.424,2.122,0.536S610.063,505.165,610.907,505.165z M611.788,497.814c0.608,0,1.155-0.106,1.642-0.32
		c0.485-0.214,0.889-0.507,1.209-0.881v-2.402c0-1.527-0.254-2.693-0.761-3.5c-0.508-0.806-1.156-1.209-1.946-1.209
		c-0.833,0-1.492,0.422-1.978,1.266c-0.486,0.844-0.729,1.81-0.729,2.898c0,1.281,0.213,2.293,0.641,3.035
		C610.293,497.443,610.934,497.814,611.788,497.814z"/>
	<path d="M639.126,499.784c0,3.149-0.731,5.528-2.194,7.135c-1.463,1.607-3.433,2.41-5.909,2.41c-2.499,0-4.479-0.803-5.942-2.41
		c-1.463-1.606-2.194-3.985-2.194-7.135v-4.9c0-3.15,0.727-5.528,2.179-7.136c1.452-1.606,3.427-2.41,5.926-2.41
		c2.487,0,4.466,0.807,5.934,2.419s2.202,3.987,2.202,7.127V499.784z M633.729,494.515c0-1.782-0.234-3.063-0.704-3.844
		c-0.471-0.779-1.148-1.169-2.034-1.169c-0.897,0-1.572,0.39-2.026,1.169c-0.454,0.78-0.681,2.062-0.681,3.844v5.605
		c0,1.815,0.229,3.11,0.688,3.884c0.459,0.774,1.143,1.161,2.051,1.161c0.886,0,1.559-0.387,2.018-1.161
		c0.459-0.773,0.688-2.068,0.688-3.884V494.515z"/>
	<path d="M651.521,485.338c0.918,0,1.735,0.078,2.45,0.232c0.716,0.155,1.506,0.403,2.371,0.745l-0.897,3.939
		c-0.747-0.225-1.401-0.393-1.962-0.505c-0.561-0.111-1.204-0.168-1.93-0.168c-1.281,0-2.309,0.451-3.083,1.354
		s-1.146,2.218-1.113,3.948l0.048,0.08c0.47-0.534,1.095-0.95,1.874-1.25c0.779-0.299,1.666-0.448,2.659-0.448
		c2.082,0,3.702,0.75,4.86,2.25c1.158,1.501,1.737,3.42,1.737,5.758c0,2.307-0.766,4.226-2.298,5.758s-3.489,2.298-5.87,2.298
		c-2.552,0-4.612-0.838-6.182-2.514c-1.569-1.677-2.354-3.973-2.354-6.887v-4.693c0-3.074,0.905-5.493,2.715-7.255
		S648.682,485.338,651.521,485.338z M650.448,497.43c-0.747,0-1.391,0.102-1.93,0.304s-0.964,0.483-1.273,0.845v1.372
		c0,1.68,0.275,2.97,0.825,3.867c0.55,0.898,1.315,1.348,2.298,1.348c0.812,0,1.474-0.382,1.986-1.148
		c0.513-0.765,0.769-1.674,0.769-2.727c0-1.181-0.248-2.119-0.744-2.815C651.882,497.778,651.238,497.43,650.448,497.43z"/>
	<path d="M661.323,508.993v-23.318h8.008c2.893,0,5.151,0.536,6.774,1.609s2.435,2.672,2.435,4.797c0,1.11-0.262,2.098-0.785,2.963
		c-0.523,0.864-1.329,1.516-2.418,1.953c1.366,0.311,2.375,0.932,3.026,1.866s0.978,2.01,0.978,3.228
		c0,2.273-0.764,3.993-2.291,5.156c-1.526,1.164-3.715,1.746-6.566,1.746H661.323z M666.752,495.396h2.69
		c1.229-0.021,2.146-0.259,2.755-0.712c0.608-0.454,0.913-1.119,0.913-1.994c0-0.993-0.31-1.717-0.929-2.17
		c-0.619-0.454-1.569-0.681-2.851-0.681h-2.579V495.396z M666.752,498.983v5.846h3.731c1.153,0,2.019-0.227,2.595-0.681
		c0.577-0.454,0.865-1.15,0.865-2.09c0-1.015-0.248-1.78-0.745-2.299c-0.496-0.518-1.3-0.776-2.41-0.776H666.752z"/>
	<path d="M688.95,505.165c1.078,0,1.97-0.387,2.674-1.161c0.705-0.773,1.058-1.844,1.058-3.211v-1.024
		c-0.523,0.641-1.132,1.123-1.826,1.449c-0.694,0.325-1.431,0.488-2.21,0.488c-2.125,0-3.788-0.718-4.989-2.154
		c-1.201-1.436-1.802-3.397-1.802-5.886c0-2.316,0.759-4.284,2.274-5.901c1.517-1.618,3.47-2.427,5.862-2.427
		c2.349,0,4.284,0.849,5.806,2.547c1.521,1.697,2.282,4.03,2.282,6.999v5.541c0,2.69-0.865,4.848-2.595,6.471
		s-3.908,2.434-6.534,2.434c-0.801,0-1.632-0.088-2.491-0.264c-0.859-0.177-1.679-0.425-2.458-0.745l0.561-3.859
		c0.747,0.245,1.455,0.424,2.122,0.536S688.106,505.165,688.95,505.165z M689.831,497.814c0.608,0,1.155-0.106,1.642-0.32
		c0.485-0.214,0.889-0.507,1.209-0.881v-2.402c0-1.527-0.254-2.693-0.761-3.5c-0.508-0.806-1.156-1.209-1.946-1.209
		c-0.833,0-1.492,0.422-1.978,1.266c-0.486,0.844-0.729,1.81-0.729,2.898c0,1.281,0.213,2.293,0.641,3.035
		C688.336,497.443,688.977,497.814,689.831,497.814z"/>
	<path d="M705.91,495.075h2.546c0.972,0,1.72-0.261,2.242-0.784c0.523-0.523,0.785-1.249,0.785-2.179
		c0-0.736-0.235-1.355-0.705-1.857s-1.152-0.753-2.05-0.753c-0.704,0-1.324,0.203-1.857,0.608c-0.534,0.406-0.801,0.93-0.801,1.57
		h-5.253l-0.032-0.097c-0.064-1.857,0.667-3.363,2.194-4.517c1.526-1.152,3.379-1.729,5.557-1.729c2.531,0,4.554,0.579,6.07,1.738
		c1.516,1.158,2.274,2.8,2.274,4.925c0,1.057-0.328,2.031-0.985,2.923c-0.656,0.892-1.535,1.588-2.635,2.09
		c1.25,0.459,2.227,1.155,2.932,2.09c0.704,0.935,1.057,2.053,1.057,3.355c0,2.136-0.816,3.814-2.45,5.037s-3.722,1.833-6.263,1.833
		c-2.188,0-4.103-0.573-5.741-1.722c-1.639-1.147-2.432-2.811-2.378-4.988l0.031-0.097h5.285c0,0.748,0.291,1.375,0.873,1.882
		c0.582,0.508,1.289,0.761,2.122,0.761c0.95,0,1.708-0.267,2.274-0.801c0.565-0.533,0.849-1.206,0.849-2.018
		c0-1.132-0.296-1.956-0.889-2.475c-0.593-0.518-1.428-0.776-2.507-0.776h-2.546V495.075z"/>
	<path d="M726.938,505.165c1.078,0,1.97-0.387,2.674-1.161c0.705-0.773,1.058-1.844,1.058-3.211v-1.024
		c-0.523,0.641-1.132,1.123-1.826,1.449c-0.694,0.325-1.431,0.488-2.21,0.488c-2.125,0-3.788-0.718-4.989-2.154
		c-1.201-1.436-1.802-3.397-1.802-5.886c0-2.316,0.759-4.284,2.274-5.901c1.517-1.618,3.47-2.427,5.862-2.427
		c2.349,0,4.284,0.849,5.806,2.547c1.521,1.697,2.282,4.03,2.282,6.999v5.541c0,2.69-0.865,4.848-2.595,6.471
		s-3.908,2.434-6.534,2.434c-0.801,0-1.632-0.088-2.491-0.264c-0.859-0.177-1.679-0.425-2.458-0.745l0.561-3.859
		c0.747,0.245,1.455,0.424,2.122,0.536S726.095,505.165,726.938,505.165z M727.819,497.814c0.608,0,1.155-0.106,1.642-0.32
		c0.485-0.214,0.889-0.507,1.209-0.881v-2.402c0-1.527-0.254-2.693-0.761-3.5c-0.508-0.806-1.156-1.209-1.946-1.209
		c-0.833,0-1.492,0.422-1.978,1.266c-0.486,0.844-0.729,1.81-0.729,2.898c0,1.281,0.213,2.293,0.641,3.035
		C726.324,497.443,726.965,497.814,727.819,497.814z"/>
	<path d="M755.285,508.993h-16.319v-3.523l7.495-7.88c0.95-1.089,1.649-2.061,2.098-2.915c0.448-0.854,0.673-1.596,0.673-2.226
		c0-0.897-0.227-1.612-0.681-2.146c-0.454-0.533-1.135-0.801-2.042-0.801c-0.812,0-1.449,0.345-1.914,1.033
		c-0.464,0.688-0.696,1.567-0.696,2.635h-5.285l-0.032-0.097c-0.054-2.156,0.651-3.984,2.114-5.485c1.463-1.5,3.4-2.25,5.813-2.25
		c2.562,0,4.562,0.63,5.998,1.89c1.436,1.261,2.154,2.984,2.154,5.174c0,1.473-0.382,2.775-1.146,3.907s-2.17,2.813-4.22,5.045
		l-3.155,3.38l0.048,0.096h9.097V508.993z"/>
	<path d="M774.151,499.784c0,3.149-0.731,5.528-2.194,7.135c-1.463,1.607-3.433,2.41-5.909,2.41c-2.499,0-4.479-0.803-5.942-2.41
		c-1.463-1.606-2.194-3.985-2.194-7.135v-4.9c0-3.15,0.727-5.528,2.179-7.136c1.452-1.606,3.427-2.41,5.926-2.41
		c2.487,0,4.466,0.807,5.934,2.419s2.202,3.987,2.202,7.127V499.784z M768.754,494.515c0-1.782-0.234-3.063-0.704-3.844
		c-0.471-0.779-1.148-1.169-2.034-1.169c-0.897,0-1.572,0.39-2.026,1.169c-0.454,0.78-0.681,2.062-0.681,3.844v5.605
		c0,1.815,0.229,3.11,0.688,3.884c0.459,0.774,1.143,1.161,2.051,1.161c0.886,0,1.559-0.387,2.018-1.161
		c0.459-0.773,0.688-2.068,0.688-3.884V494.515z"/>
	<path d="M788.437,508.993h-5.396v-17.89h-5.205v-3.812l10.602-1.634V508.993z"/>
	<path d="M812.172,489.839c-2.328,2.658-3.935,5.253-4.821,7.783c-0.886,2.53-1.511,5.568-1.873,9.113l-0.225,2.258h-5.413
		l0.208-2.258c0.32-3.332,1.052-6.423,2.194-9.273s2.723-5.392,4.74-7.623h-11.627v-4.164h16.816V489.839z"/>
</g>
<g>
</g>
<g>
</g>
<g>
</g>
<g>
</g>
<g>
</g>
<g>
</g>
</svg>
